----------------------------------------------------------------------------------------------------

/

.gitignore ( Listo NV )
Bitacora Corporate Support SAS.txt NV ->
README ( Listo NV )

----------------------------------------------------------------------------------------------------